Chapter 5 Data Manipulation with dplyr | Online R Course
…
We can use square brackets as a ‘quick’ way to get subsets of datasets (also called slicing) based on position;

DATASETNAME[ROW NUMBERS,COLUMN NUMBERS]

miniImdb[1,]

## # A tibble: 1 x 5
##   title         type   year length numVotes
##   <chr>         <fct> <dbl>  <dbl>    <int>
## 1 The Godfather movie  1972    175  1374861

miniImdb[,1]

## # A tibble: 29 x 1
##    title                                            
##    <chr>                                            
##  1 The Godfather                                    
##  2 Star Wars: Episode IV - A New Hope               
##  3 Star Wars: Episode V - The Empire Strikes Back   
##  4 The Silence of the Lambs                         
##  5 Schindler's List                                 
##  6 Forrest Gump                                     
##  7 Pulp Fiction                                     
##  8 The Shawshank Redemption                         
##  9 Se7en                                            
## 10 The Lord of the Rings: The Fellowship of the Ring
## # ... with 19 more rows
…
Whereas select helps you keep only the columns that you care about, by listing their names

select(miniImdb,title,year, numVotes)

## # A tibble: 29 x 3
##    title                                              year numVotes
##    <chr>                                             <dbl>    <int>
##  1 The Godfather                                      1972  1374861
##  2 Star Wars: Episode IV - A New Hope                 1977  1078317
##  3 Star Wars: Episode V - The Empire Strikes Back     1980  1008039
##  4 The Silence of the Lambs                           1991  1075970
##  5 Schindler's List                                   1993  1035642
##  6 Forrest Gump                                       1994  1527656
##  7 Pulp Fiction                                       1994  1566510
##  8 The Shawshank Redemption                           1994  2006753
##  9 Se7en                                              1995  1226169
## 10 The Lord of the Rings: The Fellowship of the Ring  2001  1445423
## # ... with 19 more rows

or by going in sequence - from title to year for example

select(miniImdb,title:year)

## # A tibble: 29 x 3
##    title                                             type   year
##    <chr>                                             <fct> <dbl>
##  1 The Godfather                                     movie  1972
##  2 Star Wars: Episode IV - A New Hope                movie  1977
##  3 Star Wars: Episode V - The Empire Strikes Back    movie  1980
##  4 The Silence of the Lambs                          movie  1991
##  5 Schindler's List                                  movie  1993
##  6 Forrest Gump                                      movie  1994
##  7 Pulp Fiction                                      movie  1994
##  8 The Shawshank Redemption                          movie  1994
##  9 Se7en                                             movie  1995
## 10 The Lord of the Rings: The Fellowship of the Ring movie  2001
## # ... with 19 more rows
…
QUESTION: Is there any movie who received more than 2 million votes?

filter(????, ????)

5.5 Column Transformations

We can create new columns with the function mutate()

For example let’s try to convert the length of the entries in hour rather than in minutes

mutate(miniImdb, lengthInHour = length/60)

## # A tibble: 29 x 6
##    title                           type   year length numVotes lengthInHour
##    <chr>                           <fct> <dbl>  <dbl>    <int>        <dbl>
##  1 The Godfather                   movie  1972    175  1374861         2.92
##  2 Star Wars: Episode IV - A New ~ movie  1977    121  1078317         2.02
##  3 Star Wars: Episode V - The Emp~ movie  1980    124  1008039         2.07
##  4 The Silence of the Lambs        movie  1991    118  1075970         1.97
##  5 Schindler's List                movie  1993    195  1035642         3.25
##  6 Forrest Gump                    movie  1994    142  1527656         2.37
##  7 Pulp Fiction                    movie  1994    154  1566510         2.57
##  8 The Shawshank Redemption        movie  1994    142  2006753         2.37
##  9 Se7en                           movie  1995    127  1226169         2.12
## 10 The Lord of the Rings: The Fel~ movie  2001    178  1445423         2.97
## # ... with 19 more rows
…
