Chapter 9 Modelling | Online R Course
…
QUESTION - This graph is ‘correct’, but looks horrible. Can you find the options to make this plot look a bit better? Instead of a big black blob, how can we have something more similar to the way the error bar gets plotted in geom_smooth() - transparent and shaded in a colour rather than black?

We can also use add_ci or add_pi to give us future predictions to extrapolate our model into the future

predictiondata<-data.frame(yyyy=1975:2100) %>%
   add_ci(tmaxmodel_1975) %>%
     add_pi(tmaxmodel_1975) 
predictiondata

## # A tibble: 126 x 6
##     yyyy  pred LCB0.025 UCB0.975 LPB0.025 UPB0.975
##    <int> <dbl>    <dbl>    <dbl>    <dbl>    <dbl>
##  1  1975  13.2     12.8     13.5     11.9     14.4
##  2  1976  13.2     12.9     13.5     12.0     14.4
##  3  1977  13.3     12.9     13.6     12.0     14.5
##  4  1978  13.3     13.0     13.6     12.1     14.5
##  5  1979  13.3     13.0     13.7     12.1     14.6
##  6  1980  13.4     13.1     13.7     12.2     14.6
##  7  1981  13.4     13.2     13.7     12.2     14.6
##  8  1982  13.5     13.2     13.8     12.3     14.7
##  9  1983  13.5     13.3     13.8     12.3     14.7
## 10  1984  13.6     13.3     13.8     12.4     14.8
## # ... with 116 more rows
…
